module gitlab.com/nicolebroyak1/niqurl

go 1.18

replace gitlab.com/nicolebroyak1/niqurl/internal/app/cli => ./internal/app/cli

replace gitlab.com/nicolebroyak1/niqurl/internal/app/api => ./internal/app/api

replace gitlab.com/nicolebroyak1/niqurl/internal/app/redishandler => ./internal/app/redishandler

replace gitlab.com/nicolebroyak1/niqurl/internal/app/urlhandler => ./internal/app/urlhandler

replace gitlab.com/nicolebroyak1/niqurl/internal/app/randomusers => ./internal/app/randomusers

replace gitlab.com/nicolebroyak1/niqurl/config => ./config

require (
	github.com/desertbit/grumble v1.1.3
	github.com/fatih/color v1.13.0
	github.com/gin-gonic/gin v1.8.1
	github.com/go-redis/redis/v8 v8.11.5
)

require (
	github.com/cespare/xxhash/v2 v2.1.2 // indirect
	github.com/desertbit/closer/v3 v3.1.2 // indirect
	github.com/desertbit/columnize v2.1.0+incompatible // indirect
	github.com/desertbit/go-shlex v0.1.1 // indirect
	github.com/desertbit/readline v1.5.1 // indirect
	github.com/dgryski/go-rendezvous v0.0.0-20200823014737-9f7001d12a5f // indirect
	github.com/gin-contrib/sse v0.1.0 // indirect
	github.com/go-playground/locales v0.14.0 // indirect
	github.com/go-playground/universal-translator v0.18.0 // indirect
	github.com/go-playground/validator/v10 v10.10.0 // indirect
	github.com/goccy/go-json v0.9.7 // indirect
	github.com/hashicorp/errwrap v1.1.0 // indirect
	github.com/hashicorp/go-multierror v1.1.0 // indirect
	github.com/json-iterator/go v1.1.12 // indirect
	github.com/leodido/go-urn v1.2.1 // indirect
	github.com/mattn/go-colorable v0.1.9 // indirect
	github.com/mattn/go-isatty v0.0.14 // indirect
	github.com/modern-go/concurrent v0.0.0-20180228061459-e0a39a4cb421 // indirect
	github.com/modern-go/reflect2 v1.0.2 // indirect
	github.com/pelletier/go-toml/v2 v2.0.1 // indirect
	github.com/ugorji/go/codec v1.2.7 // indirect
	golang.org/x/crypto v0.0.0-20210711020723-a769d52b0f97 // indirect
	golang.org/x/net v0.0.0-20210428140749-89ef3d95e781 // indirect
	golang.org/x/sys v0.0.0-20211216021012-1d35b9e2eb4e // indirect
	golang.org/x/text v0.3.6 // indirect
	google.golang.org/protobuf v1.28.0 // indirect
	gopkg.in/yaml.v2 v2.4.0 // indirect
)
